{
	"db": "mongodb://localhost:27017/ecommerce",
	"users": [
		{
			"_comment": "single order without discount",
			"username": "kamran@27022017-1.com",
			"password": "ic3kam123"
		},
		{
			"_comment": "single order with quantity 2 and fixed discount",
			"username": "kamran@15052017-1.com",
			"password": "ic3kam123"
		},
		{
			"_comment": "multiple order and fixed discount of £40 off total order",
			"username": "kamran@17052017-1.com",
			"password": "ic3kam123"
		},
		{
			"_comment": "multiple order with different quantities and fixed discount of £40 off total order",
			"username": "cromwell.automation+002@gmail.com",
			"password": "ic3kam123"
		},
		{
			"_comment": "empty basket",
			"username": "kamran@23052017-1.com",
			"password": "ic3kam123"
		},
		{
			"_comment": "single order with percentage discount",
			"username": "kamran@23052017-2.com",
			"password": "ic3kam123"
		},
		{
			"_comment": "single order with percentage discount",
			"username": "kamran@23052017-3.com",
			"password": "ic3kam123"
		},
		{
			"_comment": "single order with 3 FOR 2 discount offer",
			"username": "kamran@12062017-2.com",
			"password": "ic3kam123"
		},
		{
			"_comment": "single order with FREE product offer",
			"username": "kamran@12062017-4.com",
			"password": "ic3kam123"
		},
		{
			"_comment": "single order with BUY 1 GET 1 FREE product offer",
			"username": "kamran@12062017-3.com",
			"password": "ic3kam123"
		}
	]
}